#Daengun Starting Disaster

daengun_isolation_disaster = {
	potential = {
		has_reform = isolated_kingdom_reform
		uses_doom = no
		is_free_or_tributary_trigger = yes
		normal_or_historical_nations = yes
		tag = Y93
	}


	can_start = {
		has_any_disaster = no
		custom_trigger_tooltip = {
			tooltip = jeong_dead_tooltip
			NOT = { has_ruler_flag = daengun_peacemaker }
		}
	}
	
	can_stop = { 
		has_any_disaster = yes
	}

	progress = {
		modifier = {
			factor = 100
			tag = Y93
		}
	}

	can_end = {
		# mission_completed = daengun_legitimacy_assured
		has_patron_trigger = yes
		is_year = 1460
	}

	modifier = {
		all_power_cost = 0.15
		monarch_lifespan = -0.5
	}


	on_start = flavor_daengun.1
	on_end = flavor_daengun.2


	# on_monthly = {
	# 	events = {
	# 		majapahit.5 # The Rise of Demak
	# 		majapahit.6 # The rise of Mataram
	# 		majapahit.9 # Aid from Muslim merchants
	# 	}
	# 	random_events = {
	# 		360 = 0
	# 		10 = majapahit.7 # Tributary Breaks Away
	# 		10 = majapahit.10 # Spread of Islam in [province]
	# 	}
	# }
}
