feiten_missions_1_initial = {
	slot = 1
	generic = no
	ai = yes
	potential = {
		OR = {
			was_tag = Y20
			tag = Y20
		}
	}
	has_country_shield = yes

	feiten_port_facilities = {
		icon = mission_unknown_mission
		position = 1
		required_missions = { }

		provinces_to_highlight = { province_id = 4879 } # Feiten 
		
		trigger = {
			4879 = {
				development = 25
				has_dock_building_trigger = yes
			}
		}
		
		effect = {
			add_country_modifier = {
				name = feiten_port_facilities_built
				duration = 7300
			}
			4879 = {
				add_unit_construction = {
					type = light_ship
					amount = 5
					speed = 0.5
					cost = 0
				}
			}
		}
	}
	
	feiten_dual_harbors = {
		icon = mission_unknown_mission
		position = 3
		required_missions = {
			feiten_port_facilities
			feiten_integrate_cuihiok
		}

		provinces_to_highlight = {
			OR = {
				province_id = 4879 # Feiten
				province_id = 4884 # Cuihiok
			}
			OR = {
				has_trade_building_trigger = no
				has_influencing_fort = no
			}
			if = {
				limit = { has_dlc = "Dharma" }
				
			}
		}
		
		trigger = {
			4884 = {
				has_trade_building_trigger = yes
				has_influencing_fort = yes
			}
			4879 = {
				has_trade_building_trigger = yes
				has_influencing_fort = yes
			}
			OR = {
				4879 = { province_has_center_of_trade_of_level = 2 }
				4884 = { province_has_center_of_trade_of_level = 2 }
			}
		}
		
		effect = {
			add_mercantilism = 3
			custom_tooltip = feiten_dual_harbors_effect_tt
			if = {
				limit = {
					4879 = { province_has_center_of_trade_of_level = 2 }
					4884 = { province_has_center_of_trade_of_level = 2 }
				}
				add_mercantilism = 3
			}
			if = {
				limit = {
					4879 = { province_has_center_of_trade_of_level = 2 }
					4884 = { province_has_center_of_trade_of_level = 2 }
				}
				# I know its not random but the illusion of randomness is fine in this case
				random_list = {
					1 = {
						4879 = {
							add_province_modifier = {
								name = feiten_dual_harbors
								duration = 7300
							}
						}
					}
					1 = {
						4884 = {
							add_province_modifier = {
								name = feiten_dual_harbors
								duration = 7300
							}
						}
					}
				}
			}
			else_if = {
				limit = { 4879 = { province_has_center_of_trade_of_level = 2 } }
				4879 = {
					add_province_modifier = {
						name = feiten_dual_harbors
						duration = 7300
					}
				}
			}
			else_if = {
				limit = { 4884 = { province_has_center_of_trade_of_level = 2 } }
				4884 = {
					add_province_modifier = {
						name = feiten_dual_harbors
						duration = 7300
					}
				}
			}
		}
	}

	feiten_coast_blooms = {
		icon = mission_unknown_mission
		position = 4
		required_missions = { feiten_dual_harbors }

		provinces_to_highlight = {
			sea_zone = { province_id = 1371 } # Jellyfish Coast
			owned_by = ROOT
			OR = {
				NOT = { development = 10 }
				if = {
					limit = { has_dlc = "Mandate of Heaven" }
					is_prosperous = no
				}
				else = { has_tax_building_trigger = no }
			}
		}
		
		trigger = {
			num_of_owned_provinces_with = {
				value = 6
				sea_zone = { province_id = 1371 }
				development = 10
			}
			iongsim_area = {
				type = all
				if = {
					limit = { has_dlc = "Mandate of Heaven" }
					is_prosperous = yes
				}
				else = { has_tax_building_trigger = yes }
			}
		}
		
		effect = {
			add_mercantilism = 3
			add_republican_tradition_excess_to_mana_effect = { VAL = 10 }
		}
	}
}

feiten_missions_1_established = {
	slot = 1
	generic = no
	ai = yes
	potential = {
		OR = {
			was_tag = Y20
			tag = Y20
		}
		mission_completed = feiten_a_new_trading_power
	}
	has_country_shield = yes

	feiten_haichapha = {
		icon = mission_unknown_mission
		position = 6
		required_missions = {
			feiten_a_new_trading_power
			feiten_coast_blooms
		}

		provinces_to_highlight = {
			owned_by = ROOT
			has_port = yes
		}
		
		trigger = {
			num_of_heavy_ship = 5
			num_of_owned_provinces_with = {
				value = 3
				has_port = yes
				has_coastal_defence_building = yes
			}
		}
		
		effect = {
			custom_tooltip = fulfill_conditions_prov_tt
			tooltip = {
				capital_scope = {
					add_province_modifier = {
						name = feiten_anti_piracy_support
						duration = 7300
					}
					add_base_tax = 1
				}
			}
			hidden_effect = {
				every_owned_province = {
					limit = { has_coastal_defence_building = yes }
					add_province_modifier = {
						name = feiten_anti_piracy_support
						duration = 7300
					}
					add_base_tax = 1
				}
			}
		}	
	}
	
	feiten_staging_grounds = {
		icon = mission_unknown_mission
		position = 8
		required_missions = { feiten_mapping_storm_boundaries }

		provinces_to_highlight = {
			OR = {
				province_id = 6512
				province_id = 6147
			}
			OR = {
				has_dock_building_trigger = no
				has_production_building_trigger = no
				NOT = { development = 10 }
			}
		}
		
		trigger = {
			6512 = {
				has_dock_building_trigger = yes
				has_production_building_trigger = yes
				development = 10
			}
			6147 = {
				has_dock_building_trigger = yes
				has_production_building_trigger = yes
				development = 10
			}
		}
		
		effect = {
			6512 = {
				change_trade_goods = fish
				add_permanent_province_modifier = {
					name = feiten_whaling_base_bountiful
					duration = -1
				}
			}
			6147 = {
				change_trade_goods = fish
				add_permanent_province_modifier = {
					name = feiten_whaling_base_bountiful
					duration = -1
				}
			}
		}
	}
	
	feiten_gateways = {
		icon = mission_unknown_mission
		position = 9
		required_missions = { feiten_staging_grounds }

		provinces_to_highlight = {
			OR = {
				province_id = 4879
				province_id = 4884
			}
			OR = {
				has_shipyard_building_trigger = no
				NOT = { province_trade_power = 30 }
			}
		}
		
		trigger = {
			4879 = {
				has_shipyard_building_trigger = yes
				province_trade_power = 30
			}
			4884 = {
				has_shipyard_building_trigger = yes
				province_trade_power = 30
			}
		}
		
		effect = {
			define_advisor = {
				type = navigator
				# name = ""
				skill = 3
				cost_multiplier = 0.5
			}
			4879 = {
				add_province_modifier = {
					name = feiten_gateways_to_the_world
					duration = -1
				}
			}
			4884 = {
				add_province_modifier = {
					name = feiten_gateways_to_the_world
					duration = -1
				}
			}
		}	
	}
}

feiten_missions_2_early = {
	slot = 2
	generic = no
	ai = yes
	potential = {
		OR = {
			was_tag = Y20
			tag = Y20
		}
	}
	has_country_shield = yes

	feiten_integrate_cuihiok = {
		icon = mission_unknown_mission
		position = 2
		required_missions = { }

		provinces_to_highlight = { province_id = 4884 } # Cuihiok 
		
		trigger = {
			4884 = {
				has_tax_building_trigger = yes
				NOT = { local_autonomy = 10 }
			}
		}
		
		effect = {
			4884 = {
				add_base_manpower = 1
				add_base_production = 1
				add_base_tax = 1
				change_religion = high_philosophy
			}
			hungngon_area = { add_permanent_claim = ROOT }
			wanglam_area = { add_claim = ROOT }
			4984 = { add_claim = ROOT }
			4982 = { add_claim = ROOT }
		}
	}

	feiten_into_the_tea_forest = {
		icon = mission_unknown_mission
		position = 3
		required_missions = { feiten_integrate_cuihiok }

		provinces_to_highlight = {
			area = hungngon_area
			OR = {
				NOT = { owned_by = ROOT }
				NOT = { is_core = ROOT }
			}
		}
		
		trigger = {
			hungngon_area = {
				type = all
				owned_by = ROOT
				is_core = ROOT
			}
		}
		
		effect = {
			wanglam_area = { add_permanent_claim = ROOT }
			4984 = { add_permanent_claim = ROOT }
			4982 = { add_permanent_claim = ROOT }
			add_power_projection = {
				type = mission_rewards_power_projection
				amount = 10
			}
		}
	}

	feiten_monopoly_on_tea_gardens = {
		icon = mission_unknown_mission
		position = 4
		required_missions = { feiten_into_the_tea_forest }

		provinces_to_highlight = {
			country_or_non_sovereign_subject_holds = ROOT
			trade_goods = tea
			OR = {
				has_production_building_trigger = no
				has_trade_building_trigger = no
			}
		}
		
		trigger = {
			num_of_owned_provinces_with = {
				value = 3
				trade_goods = tea
				has_production_building_trigger = yes
				has_trade_building_trigger = yes
			}
		}
		
		effect = {
			add_years_of_owned_provinces_production_income = {
				years = 2
				trigger = {
					trade_goods = tea
					has_production_building_trigger = yes
					has_trade_building_trigger = yes
				}
			}
			custom_tooltip = fulfill_conditions_prov_tt
			tooltip = {
				capital_scope = {
					add_province_modifier = {
						name = feiten_local_trade_monopoly
						duration = 10950
					}
				}
			}
			hidden_effect = {
				every_owned_province = {
					limit = {
						trade_goods = tea
						has_production_building_trigger = yes
						has_trade_building_trigger = yes
					}
					add_province_modifier = {
						name = feiten_local_trade_monopoly
						duration = 10950
					}
				}
			}
		}
	}
}

feiten_missions_2_established = {
	slot = 2
	generic = no
	ai = yes
	potential = {
		OR = {
			was_tag = Y20
			tag = Y20
		}
		mission_completed = feiten_a_new_trading_power
	}
	has_country_shield = yes

	feiten_chasing_whale_migrations = {
		icon = mission_unknown_mission
		position = 6
		required_missions = { feiten_a_new_trading_power }

		provinces_to_highlight = { }
		
		trigger = {
			custom_trigger_tooltip = {
				tooltip = "If Exploration Ideas has been finished:\n50 dip\nElse:\n100 dip"
				if = {
					limit = { full_idea_group = exploration_ideas }
					dip_power = 50
				}
				else = {
					dip_power = 100
				}
			}
			sailors_percentage = 1
		}
		
		effect = {
			define_explorer = {
				# name = ""
				shock = 2
				fire = 2
				manuever = 6
				trait = accomplished_sailor_personality
			}
			add_sailors = -5000
			if = {
				limit = { full_idea_group = exploration_ideas }
				add_dip_power = -50
			}
			else = { add_dip_power = -100 }
			add_country_modifier = {
				name = feiten_chasing_whale_migrations
				duration = 7300
			}
		}	
	}
	
	feiten_mapping_storm_boundaries = {
		icon = mission_unknown_mission
		position = 7
		required_missions = {
			feiten_chasing_whale_migrations
			feiten_haichapha
		}

		provinces_to_highlight = {
			OR = {
				province_id = 1619
				province_id = 6512
			}
		}
		
		trigger = {
			has_discovered = 1619
			has_discovered = 6512
			has_institution = new_world_i
		}
		
		effect = {
			create_colony_mission_reward = { province = 6512 }
			create_colony_mission_reward = { province = 6147 }
		}
	}
	
	feiten_to_build_an_airfleet = {
		icon = mission_unknown_mission
		position = 10
		required_missions = {
			feiten_gateways
			feiten_paradigm_shift
		}

		provinces_to_highlight = {
			country_or_non_sovereign_subject_holds = ROOT
			if = {
				limit = {
					NOT = {
						ROOT = {
							num_of_provinces_owned_or_owned_by_non_sovereign_subjects_with = {
								value = 3
								has_building = wharf
								base_production = 8
							}
						}
					}
				}
				OR = {
					trade_goods = naval_supplies
					trade_goods = fish
					trade_goods = salt	
				}
			}
			else_if = {
				limit = {
					NOT = {
						ROOT = {
							num_of_provinces_owned_or_owned_by_non_sovereign_subjects_with = {
								value = 3
								has_building = textile
								base_production = 8
							}
						}
					}
				}
				OR = {
					trade_goods = silk
					trade_goods = cloth
					trade_goods = dyes
					trade_goods = wool
				}
			}
			else_if = {
				limit = {
					NOT = {
						ROOT = {
							num_of_provinces_owned_or_owned_by_non_sovereign_subjects_with = {
								value = 2
								has_building = weapons
								base_production = 8
							}
						}
					}
				}
				OR = {
					trade_goods = iron
					trade_goods = copper
				}
			}
			else = {
				OR = {
					trade_goods = silk
					trade_goods = cloth
					trade_goods = dyes
					trade_goods = wool
					trade_goods = iron
					trade_goods = copper
					trade_goods = naval_supplies
					trade_goods = fish
					trade_goods = salt
				}
			}
			OR = {
				has_no_manufactory_trigger = yes
				NOT = { base_production = 8 }
			}
		}
		
		trigger = {
			num_of_provinces_owned_or_owned_by_non_sovereign_subjects_with = {
				value = 3
				has_building = wharf
				base_production = 8
			}
			num_of_provinces_owned_or_owned_by_non_sovereign_subjects_with = {
				value = 2
				has_building = textile
				base_production = 8
			}
			num_of_provinces_owned_or_owned_by_non_sovereign_subjects_with = {
				value = 2
				has_building = weapons
				base_production = 8
			}
		}
		
		effect = {
			custom_tooltip = fulfill_conditions_prov_tt
			tooltip = {
				capital_scope = {
					add_province_modifier = {
						name = feiten_state_investment
						duration = 7300
					}
				}
			}
			hidden_effect = {
				every_owned_province = {
					if = {
						limit = { base_production = 12 }
						add_province_modifier = {
							name = feiten_state_investment
							duration = 14600
						}
					}
					else = {
						add_province_modifier = {
							name = feiten_state_investment
							duration = 7300
						}
					}
				}
				every_subject_country = {
					every_owned_province = {
						if = {
							limit = { base_production = 12 }
							add_province_modifier = {
								name = feiten_state_investment
								duration = 14600
							}
						}
						else = {
							add_province_modifier = {
								name = feiten_state_investment
								duration = 7300
							}
						}
					}
				}
			}
			custom_tooltip = "Modifier length will double if there is 12 production in the province"
		}	
	}
}

feiten_missions_3_early = {
	slot = 3
	generic = no
	ai = yes
	potential = {
		OR = {
			was_tag = Y20
			tag = Y20
		}
	}
	has_country_shield = yes

	feiten_incite_the_rebellious_cub = {
		icon = mission_unknown_mission
		position = 1
		required_missions = { }

		provinces_to_highlight = {
			OR = {
				owned_by = Y24 # Luoyip
				owned_by = Y21 # Xiyun
			}
		}
		
		trigger = {
			reverse_has_opinion = {
				who = Y24
				value = 200
			}
			has_spy_network_in = {
				who = Y21
				value = 50
			}
		}
		
		effect = {
			every_province = {
				limit = { owned_by = Y21 }
				add_permanent_claim = Y24
			}
			declare_war_with_cb = {
				who = Y21
				casus_belli = cb_conquest
			}
			Y24 = { join_all_offensive_wars_of = ROOT }
			add_favors = { who = Y24 amount = 20 }
		}
	}

	feiten_under_our_wing = {
		icon = mission_unknown_mission
		position = 2
		required_missions = { feiten_incite_the_rebellious_cub }

		provinces_to_highlight = {
			if = {
				limit = { exists = Y21 }
				OR = {
					owned_by = Y24
					owned_by = Y21
				}
				
			}
			else = {
				OR = {
					province_id = 4888
					province_id = 4889
					province_id = 4893
				}
				NOT = { is_core = Y24 }
			}
		}
		
		trigger = {
			Y24 = { trust = { who = ROOT value = 90 } }
			4888 = { is_core = Y24 }
			4889 = { is_core = Y24 }
			4893 = { is_core = Y24 }
		}
		
		effect = {
			create_march = Y24
			add_dip_power = -150
		}
	}

	feiten_sate_silk_turban_greed = {
		icon = mission_unknown_mission
		position = 3
		required_missions = { feiten_under_our_wing }

		provinces_to_highlight = { province_id = 4890 } # Ongdou
		
		trigger = {
			4890 = {
				has_trade_building_trigger = yes
				has_production_building_trigger = yes
			}
		}
		
		effect = {
			add_years_of_owned_provinces_production_income = {
				years = 2
				trigger = { province_id = 4890 }
			}
			4890 = {
				add_province_modifier = {
					name = feiten_local_trade_monopoly
					duration = 10950
				}
			}
			add_prestige_excess_to_splendour_effect = { VAL = 10 }
			add_estate_loyalty = {
				estate = estate_burghers
				loyalty = 10
			}
		}
	}

	feiten_a_new_trading_power = {
		icon = mission_unknown_mission
		position = 5
		required_missions = {
			feiten_sate_silk_turban_greed
			feiten_monopoly_on_tea_gardens
			feiten_monopoly_on_salt
		}

		provinces_to_highlight = { province_id = 1372 } # Tianlou Bay
		
		trigger = {
			republican_tradition = 95
			stability = 1
			4871 = { # Tianlou
				trade_share = {
					country = ROOT
					share = 20
				}
			}
		}
		
		effect = {
			random_country = {
				limit = { owns = 4871 }
				add_historical_rival = ROOT
				ROOT = { add_historical_rival = PREV }
			}
			add_country_modifier = {
				name = feiten_trade_power_rises
				duration = 18250
			}
			add_government_reform = feiten_silken_jellyfish_council
			custom_tooltip = new_missions_revealed_tt
			swap_non_generic_missions = yes
		}
	}
}

feiten_missions_3_established = {
	slot = 3
	generic = no
	ai = yes
	potential = {
		OR = {
			was_tag = Y20
			tag = Y20
		}
		mission_completed = feiten_a_new_trading_power
	}
	has_country_shield = yes

	feiten_masters_of_the_seas = {
		icon = mission_unknown_mission
		position = 6
		required_missions = { feiten_a_new_trading_power }

		provinces_to_highlight = {
			owner = {
				capital_scope = { superregion = yanshen_superregion }
				naval_strength = {
					who = ROOT
					value = 0.5
				}
			}
		}
		
		trigger = {
			custom_trigger_tooltip = {
				tooltip = "Our navy is twice as large as any in Yanshen"
				NOT = {
					any_country = {
						capital_scope = { superregion = yanshen_superregion }
						naval_strength = {
							who = ROOT
							value = 0.5
						}
					}
				}
			}
			OR = {
				full_idea_group = exploration_ideas
				full_idea_group = maritime_ideas
				full_idea_group = naval_ideas
			}
		}
		
		effect = {
			tianlou_area = { add_permanent_claim = ROOT }
		}	
	}
	
	feiten_bombs_over_tianlou = {
		icon = mission_unknown_mission
		position = 8
		required_missions = {
			feiten_shuimu_engineering_cadre
			feiten_masters_of_the_seas
		}

		provinces_to_highlight = {

		}
		
		trigger = {
			
		}
		
		effect = {

		}	
	}
	
	feiten_paradigm_shift = {
		icon = mission_unknown_mission
		position = 9
		required_missions = {
			feiten_staging_grounds
			feiten_bombs_over_tianlou
			feiten_entrenching_the_artificers
		}

		provinces_to_highlight = {

		}
		
		trigger = {
			
		}
		
		effect = {

		}	
	}

	feiten_to_house_an_airfleet = {
		icon = mission_unknown_mission
		position = 10
		required_missions = {
			feiten_gateways
			feiten_paradigm_shift
			feiten_developing_an_air_doctrine
		}

		provinces_to_highlight = {
			
		}
		
		trigger = {
			
		}
		
		effect = {

		}	
	}

	feiten_the_first_voyage = {
		icon = mission_unknown_mission
		position = 11
		required_missions = {
			feiten_to_build_an_airfleet
			feiten_to_house_an_airfleet
			feiten_to_man_an_airfleet
		}

		provinces_to_highlight = {

		}
		
		trigger = {
			
		}
		
		effect = {

		}	
	}

	feiten_the_world_our_oyster = {
		icon = mission_unknown_mission
		position = 12
		required_missions = { feiten_the_first_voyage }

		provinces_to_highlight = {

		}
		
		trigger = {
			
		}
		
		effect = {

		}	
	}
}

feiten_missions_4_early = {
	slot = 4
	generic = no
	ai = yes
	potential = {
		OR = {
			was_tag = Y20
			tag = Y20
		}
	}
	has_country_shield = yes

	feiten_white_gold = {
		icon = mission_unknown_mission
		position = 2
		required_missions = { }

		provinces_to_highlight = { owned_by = Y27 }
		
		trigger = {
			if = {
				limit = { exists = Y27 }
				OR = {
					has_spy_network_in = {
						who = Y27
						value = 50
					}
					reverse_has_opinion = {
						who = Y27
						value = 190
					}
				}
			}
			else = { 4896 = { country_or_non_sovereign_subject_holds = ROOT } }
		}
		
		effect = {
			custom_tooltip = feiten_white_gold_effect_tt_1
			tooltip = {
				Y27 = {
					add_country_modifier = {
						name = feiten_salt_trade_deal_kohai
						duration = 7300
					}
				}
				add_country_modifier = {
					name = feiten_salt_trade_deal_feiten
					duration = 7300
				}
				add_trust = {
					who = Y27
					value = 10
					mutual = yes
				}
			}
			custom_tooltip = feiten_white_gold_effect_tt_2
			tooltip = { hongnguan_area = { add_permanent_claim = ROOT } }
			hidden_effect = {
				if = {
					limit = { exists = Y27 }
					if = {
						limit = {
							has_spy_network_in = {
								who = Y27
								value = 50
							}
						}
						hongnguan_area = { add_permanent_claim = ROOT }
					}
					else_if = {
						limit = {
							reverse_has_opinion = {
								who = Y27
								value = 190
							}
						}
						Y27 = {
							add_country_modifier = {
								name = feiten_salt_trade_deal_kohai
								duration = 7300
							}
						}
						add_country_modifier = {
							name = feiten_salt_trade_deal_feiten
							duration = 7300
						}
						add_trust = {
							who = Y27
							value = 10
							mutual = yes
						}
					}
				}
			}
		}
	}

	feiten_control_the_salt_road = {
		icon = mission_unknown_mission
		position = 3
		required_missions = { feiten_white_gold }

		provinces_to_highlight = {
			if = {
				limit = {
					4896 = { is_permanent_claim = ROOT } # Sising
					province_id = 4896
				}
			}
			else = { owned_by = Y27 }
		}
		
		trigger = {
			OR = {
				4896 = { owned_by = ROOT }
				AND = {
					alliance_with = Y27
					Y27 = { trust = { who = ROOT value = 75 } }
					1371 = {
						trade_share = {
							country = ROOT
							share = 50
						}
					}
				}
			}
		}
		
		effect = {
			4871 = {
				add_trade_modifier = {
					who = ROOT
					duration = -1
					power = 10
					key = "Control of the Salt Road"
				}
			}
			4859 = {
				add_trade_modifier = {
					who = ROOT
					duration = -1
					power = 10
					key = "Control of the Salt Road"
				}
			}
			add_country_modifier = {
				name = feiten_salt_road_control
				duration = 7300
			}
			if = {
				limit = { has_country_modifier = feiten_salt_trade_deal_feiten }
				remove_country_modifier = feiten_salt_trade_deal_feiten
				Y27 = { remove_country_modifier = feiten_salt_trade_deal_kohai }
			}
		}
	}

	feiten_monopoly_on_salt = {
		icon = mission_unknown_mission
		position = 4
		required_missions = { feiten_control_the_salt_road }

		provinces_to_highlight = { province_id = 4896 }
		
		trigger = {
			OR = {
				4896 = {
					has_trade_building_trigger = yes
					has_production_building_trigger = yes
					owned_by = ROOT
				}
				# wtf this doesn't work
				# Y27 = {
				# 	has_opinion_modifier = {
				# 		who = ROOT
				# 		modifier = transfers_trade_power
				# 	}
				# }
				custom_trigger_tooltip = {
					tooltip = feiten_monopoly_on_salt_trigger_tt
					Y27 = { has_country_flag = transfers_trade_to_feiten }
				}
			}				
		}
		
		effect = {
			if = {
				limit = { 4896 = { owned_by = ROOT } }
				add_years_of_owned_provinces_production_income = {
					years = 2
					trigger = { province_id = 4896 }
				}
				4896 = {
					add_province_modifier = {
						name = feiten_local_trade_monopoly
						duration = 10950
					}
				}
			}
			else = {
				add_years_of_trade_income = {
					years = 2
					custom_tooltip = feiten_monopoly_on_salt_effect_tt
				}
			}
		}
	}
}

feiten_missions_4_established = {
	slot = 4
	generic = no
	ai = yes
	potential = {
		OR = {
			was_tag = Y20
			tag = Y20
		}
		mission_completed = feiten_a_new_trading_power
	}
	
	has_country_shield = yes

	feiten_house_of_fire_and_water = {
		icon = mission_unknown_mission
		position = 6
		required_missions = { feiten_a_new_trading_power }

		provinces_to_highlight = {

		}
		
		trigger = {
			
		}
		
		effect = {

		}	
	}
	
	feiten_shuimu_engineering_cadre = {
		icon = mission_unknown_mission
		position = 7
		required_missions = {
			feiten_starry_eyed_philosophers
			feiten_house_of_fire_and_water
		}

		provinces_to_highlight = {

		}
		
		trigger = {
			
		}
		
		effect = {

		}	
	}
	
	feiten_to_man_an_airfleet = {
		icon = mission_unknown_mission
		position = 10
		required_missions = {
			feiten_paradigm_shift
			feiten_developing_an_air_doctrine
		}

		provinces_to_highlight = {

		}
		
		trigger = {
			
		}
		
		effect = {

		}	
	}
}

feiten_missions_5_early = {
	slot = 5
	generic = no
	ai = yes
	potential = {
		OR = {
			was_tag = Y20
			tag = Y20
		}
	}
	has_country_shield = yes

	feiten_state_whaling_expeditions = {
		icon = mission_unknown_mission
		position = 1
		required_missions = { }

		provinces_to_highlight = { }
		
		trigger = {
			OR = {
				AND = {

					ruler_has_personality = entrepreneur_personality 
					dip = 5
				}
				treasury = 150
			}
		}
		
		effect = {
			if = {
				limit = {
					NOT = { dip = 5 }
					NOT = { ruler_has_personality = entrepreneur_personality }
				}
				add_treasury = -150
			}
			country_event = { id = flavor_feiten.1 }
		}
	}

	feiten_first_foray_into_the_skies = {
		icon = mission_unknown_mission
		position = 3
		required_missions = {
			feiten_state_whaling_expeditions
			feiten_white_gold
		}

		provinces_to_highlight = { province_id = 4879 }
		
		trigger = {
			4879 = { renaissance = 100 }
		}
		
		effect = {
			define_advisor = {
				type = natural_scientist
				# name = 
				skill = 2
				cost_multiplier = 0.25
			}
			add_country_modifier = {
				name = feiten_starting_balloon_research
				duration = 3650
			}
		}
	}

	feiten_from_theory_to_practice = {
		icon = mission_unknown_mission
		position = 4
		required_missions = { feiten_first_foray_into_the_skies }

		provinces_to_highlight = { }
		
		trigger = {
			NOT = { has_country_modifier = feiten_starting_balloon_research }
			OR = {
				has_mil_advisor_2 = yes
				mil = 5
			}
		}
		
		effect = {
			country_event = { id = flavor_feiten.10 }
			if = {
				limit = { has_dlc = "Rule Britannia" }
				change_innovativeness = 3
			}
			else = {
				add_adm_power = 60
				add_dip_power = 60
				add_mil_power = 60
			}
			custom_tooltip = feiten_unlock_jellyfish_scouts
			custom_tooltip = merc_elite_no_army_prof_tt
		}
	}
}

feiten_missions_5_established = {
	slot = 5
	generic = no
	ai = yes
	potential = {
		OR = {
			was_tag = Y20
			tag = Y20
		}
		mission_completed = feiten_a_new_trading_power
	}
	has_country_shield = yes

	feiten_starry_eyed_philosophers = {
		icon = mission_unknown_mission
		position = 6
		required_missions = {
			feiten_a_new_trading_power
			feiten_from_theory_to_practice
		}

		provinces_to_highlight = { province_id = 4861 }
		
		trigger = {
			OR = {
				owns = 4861
				4861 = {
					owner = {
						has_opinion = {
							who = ROOT
							value = 165
						}
					}
				}
			}
			estate_loyalty = {
				estate = estate_church
				loyalty = 60
			}
			estate_influence = {
				estate = estate_church
				influence = 40
			}
		}
		
		effect = {
			add_country_modifier = {
				name = feiten_invite_school_of_starry_eye
				duration = 7300
			}
			country_event = { id = flavor_feiten.20 }
		}
	}
	
	feiten_entrenching_the_artificers = {
		icon = mission_unknown_mission
		position = 8
		required_missions = { feiten_shuimu_engineering_cadre }

		provinces_to_highlight = { }
		
		trigger = {
			num_of_estate_privileges = {
				estate = estate_artificers
				value = 2
			}
		}
		
		effect = {
			set_country_flag = feiten_airfleet_captain_unlocked
		}	
	}
	
	feiten_developing_an_air_doctrine = {
		icon = mission_unknown_mission
		position = 9
		required_missions = { feiten_entrenching_the_artificers }

		provinces_to_highlight = {

		}
		
		trigger = {
			has_mil_advisor_3 = yes
			if = {
				limit = { army_professionalism = 0.4 }
				mil_power = 150
			}
			else = { mil_power = 300 }
		}
		
		effect = {
			if = {
				limit = { army_professionalism = 0.4 }
				add_mil_power = 150
			}
			else = { add_mil_power = 150 }

		}	
	}
}